<?xml version="1.0" encoding="utf-8"?>
<!-- Generator: Adobe Illustrator 16.0.4, SVG Export Plug-In . SVG Version: 6.00 Build 0)  -->
<!DOCTYPE svg PUBLIC "-//W3C//DTD SVG 1.1//EN" "http://www.w3.org/Graphics/SVG/1.1/DTD/svg11.dtd">
<svg version="1.1" id="Layer_1" xmlns="http://www.w3.org/2000/svg" xmlns:xlink="http://www.w3.org/1999/xlink" x="0px" y="0px"
	 width="50px" height="50px" viewBox="0 0 50 50" enable-background="new 0 0 50 50" xml:space="preserve">
<g>
	<path fill="#3D84C5" d="M2.788,2.021C2.653,0.929,3.443,0.036,4.543,0.036h39.809c1.1,0,1.89,0.893,1.756,1.985L40.44,48.015
		C40.307,49.106,39.296,50,38.196,50h-27.5c-1.1,0-2.11-0.894-2.245-1.985L2.788,2.021z"/>
</g>
<polygon fill="#FFFFFF" points="5.982,2.752 43.635,2.752 38.795,43.817 10.327,43.817 "/>
<g>
	<path fill="#3D84C5" d="M9.407,17.777c-0.091-1.096,0.734-1.993,1.834-1.993h26.412c1.1,0,1.889,0.893,1.752,1.984l-2.761,22.1
		c-0.137,1.092-1.148,1.984-2.248,1.984H13.413c-1.1,0-2.075-0.896-2.166-1.993L9.407,17.777z"/>
</g>
<g>
	<path fill="#FFFFFF" d="M26.758,24.295c-0.293,1.061-1.4,1.688-2.461,1.395l-10.063-2.781c-1.06-0.293-1.688-1.4-1.395-2.46
		l2.786-10.067c0.293-1.061,1.401-1.688,2.461-1.395l10.065,2.78c1.061,0.293,1.688,1.4,1.395,2.46L26.758,24.295z"/>
	<path fill="none" stroke="#3D84C5" stroke-miterlimit="10" d="M26.758,24.295c-0.293,1.061-1.4,1.688-2.461,1.395l-10.063-2.781
		c-1.06-0.293-1.688-1.4-1.395-2.46l2.786-10.067c0.293-1.061,1.401-1.688,2.461-1.395l10.065,2.78
		c1.061,0.293,1.688,1.4,1.395,2.46L26.758,24.295z"/>
</g>
<g>
	<path fill="#FFFFFF" d="M31.771,31.932c-0.685,0.861-1.949,1.007-2.81,0.322l-5.673-4.507c-0.861-0.685-1.006-1.949-0.322-2.811
		l4.51-5.681c0.685-0.861,1.949-1.007,2.811-0.323l5.675,4.507c0.861,0.684,1.007,1.948,0.322,2.81L31.771,31.932z"/>
	<path fill="none" stroke="#3D84C5" stroke-miterlimit="10" d="M31.771,31.932c-0.685,0.861-1.949,1.007-2.81,0.322l-5.673-4.507
		c-0.861-0.685-1.006-1.949-0.322-2.811l4.51-5.681c0.685-0.861,1.949-1.007,2.811-0.323l5.675,4.507
		c0.861,0.684,1.007,1.948,0.322,2.81L31.771,31.932z"/>
</g>
<g>
	<path fill="#FFFFFF" d="M19.115,40.932c-0.984,0.491-2.191,0.088-2.683-0.896L12.19,31.54c-0.492-0.983-0.088-2.191,0.896-2.684
		l8.506-4.25c0.984-0.492,2.191-0.089,2.683,0.896l4.244,8.5c0.491,0.983,0.088,2.191-0.896,2.683L19.115,40.932z"/>
	<path fill="none" stroke="#3D84C5" stroke-miterlimit="10" d="M19.115,40.932c-0.984,0.491-2.191,0.088-2.683-0.896L12.19,31.54
		c-0.492-0.983-0.088-2.191,0.896-2.684l8.506-4.25c0.984-0.492,2.191-0.089,2.683,0.896l4.244,8.5
		c0.491,0.983,0.088,2.191-0.896,2.683L19.115,40.932z"/>
</g>
<g>
	<path fill="#7C7D7D" d="M2.245,1.985C2.11,0.893,2.9,0,4,0h40.895c1.1,0,1.89,0.893,1.756,1.985l-5.667,45.994
		c-0.134,1.092-1.145,1.985-2.244,1.985H10.155c-1.1,0-2.11-0.894-2.245-1.985L2.245,1.985z"/>
</g>
<polygon fill="#424343" points="5.439,2.716 44.179,2.716 39.338,43.781 9.784,43.781 "/>
<g>
	<path fill="#7C7D7D" d="M9.95,16.656c-0.091-1.096,0.734-1.993,1.834-1.993h26.414c1.1,0,1.889,0.893,1.752,1.984l-2.763,22.1
		c-0.137,1.092-1.148,1.984-2.248,1.984H13.957c-1.1,0-2.075-0.896-2.166-1.993L9.95,16.656z"/>
</g>
<g>
	<path fill="#424343" d="M27.302,23.173c-0.294,1.06-1.401,1.688-2.462,1.394l-10.062-2.782c-1.06-0.293-1.688-1.4-1.395-2.461
		l2.786-10.065c0.293-1.061,1.428-1.83,2.521-1.711l2.514,0.273c1.094,0.119,2.817,0.567,3.831,0.996l3.746,1.583
		c1.013,0.428,1.602,1.646,1.308,2.706L27.302,23.173z"/>
	<path fill="none" stroke="#7C7D7D" d="M27.302,23.173c-0.294,1.06-1.401,1.688-2.462,1.394l-10.062-2.782
		c-1.06-0.293-1.688-1.4-1.395-2.461l2.786-10.065c0.293-1.061,1.428-1.83,2.521-1.711l2.514,0.273
		c1.094,0.119,2.817,0.567,3.831,0.996l3.746,1.583c1.013,0.428,1.602,1.646,1.308,2.706L27.302,23.173z"/>
</g>
<g>
	<path fill="#424343" d="M32.315,30.81c-0.685,0.861-1.949,1.007-2.811,0.322l-5.673-4.507c-0.861-0.684-1.006-1.949-0.322-2.811
		l4.511-5.681c0.684-0.861,1.948-1.007,2.81-0.323l5.674,4.507c0.861,0.684,1.007,1.948,0.322,2.81L32.315,30.81z"/>
	<path fill="none" stroke="#7C7D7D" d="M32.315,30.81c-0.685,0.861-1.949,1.007-2.811,0.322l-5.673-4.507
		c-0.861-0.684-1.006-1.949-0.322-2.811l4.511-5.681c0.684-0.861,1.948-1.007,2.81-0.323l5.674,4.507
		c0.861,0.684,1.007,1.948,0.322,2.81L32.315,30.81z"/>
</g>
<g>
	<path fill="#424343" d="M19.657,39.812c-0.984,0.491-2.191,0.088-2.682-0.896l-4.243-8.499c-0.491-0.983-0.088-2.191,0.896-2.683
		l8.507-4.25c0.984-0.491,2.191-0.088,2.683,0.896l4.243,8.498c0.491,0.983,0.089,2.191-0.896,2.683L19.657,39.812z"/>
	<path fill="none" stroke="#7C7D7D" d="M19.657,39.812c-0.984,0.491-2.191,0.088-2.682-0.896l-4.243-8.499
		c-0.491-0.983-0.088-2.191,0.896-2.683l8.507-4.25c0.984-0.491,2.191-0.088,2.683,0.896l4.243,8.498
		c0.491,0.983,0.089,2.191-0.896,2.683L19.657,39.812z"/>
</g>
</svg>
