<?xml version="1.0" encoding="utf-8"?>
<!-- Generator: Adobe Illustrator 16.0.4, SVG Export Plug-In . SVG Version: 6.00 Build 0)  -->
<!DOCTYPE svg PUBLIC "-//W3C//DTD SVG 1.1//EN" "http://www.w3.org/Graphics/SVG/1.1/DTD/svg11.dtd">
<svg version="1.1" id="Layer_1" xmlns="http://www.w3.org/2000/svg" xmlns:xlink="http://www.w3.org/1999/xlink" x="0px" y="0px"
	 width="23.667px" height="23.667px" viewBox="0 0 23.667 23.667" enable-background="new 0 0 23.667 23.667" xml:space="preserve">
<circle fill="none" stroke="#C4C6C6" stroke-width="4" cx="12.098" cy="11.588" r="8.839"/>
<line fill="none" stroke="#C4C6C6" stroke-width="2" stroke-linecap="round" x1="11.202" y1="13.034" x2="11.202" y2="6.627"/>
<line fill="none" stroke="#C4C6C6" stroke-width="2" stroke-linecap="round" x1="11.611" y1="13.034" x2="16.089" y2="10.143"/>
<g>
</g>
<g>
</g>
</svg>
