<?xml version="1.0" encoding="utf-8"?>
<!-- Generator: Adobe Illustrator 16.0.4, SVG Export Plug-In . SVG Version: 6.00 Build 0)  -->
<!DOCTYPE svg PUBLIC "-//W3C//DTD SVG 1.1//EN" "http://www.w3.org/Graphics/SVG/1.1/DTD/svg11.dtd">
<svg version="1.1" id="Layer_1" xmlns="http://www.w3.org/2000/svg" xmlns:xlink="http://www.w3.org/1999/xlink" x="0px" y="0px"
	 width="41.869px" height="33.6px" viewBox="0 0 41.869 33.6" enable-background="new 0 0 41.869 33.6" xml:space="preserve">
<path fill="#012F3D" d="M31.538,6.477c-1.823,1.807-3.781,3.165-5.686,4.69c-1.17-0.617-2.338-1.234-3.511-1.853
	c-3.515,1.684-6.659,8.167-7.121,12.27c1.336,0.705,2.675,1.408,4.011,2.115c-0.767,2.754,0.126,4.995-0.934,7.842
	c-1.125-0.015-2.145,0.303-3.063,0.946C1.795,26.012,15.283,3.849,24.81,1C28.233,1.019,32.117,3.11,31.538,6.477z"/>
</svg>
