<?xml version="1.0" encoding="utf-8"?>
<!-- Generator: Adobe Illustrator 16.0.4, SVG Export Plug-In . SVG Version: 6.00 Build 0)  -->
<!DOCTYPE svg PUBLIC "-//W3C//DTD SVG 1.1//EN" "http://www.w3.org/Graphics/SVG/1.1/DTD/svg11.dtd">
<svg version="1.1" xmlns="http://www.w3.org/2000/svg" xmlns:xlink="http://www.w3.org/1999/xlink" x="0px" y="0px" width="50px"
	 height="50px" viewBox="0 0 50 50" enable-background="new 0 0 50 50" xml:space="preserve">
<g id="Layer_1" display="none">
	<g display="inline">
		<path fill="#3D84C5" d="M49.542,25.899c0,2.2-1.8,4-4,4H16.571c-2.2,0-4-1.8-4-4v-0.773c0-2.2,1.8-4,4-4h28.971c2.2,0,4,1.8,4,4
			V25.899z"/>
	</g>
	<circle display="inline" fill="#3D84C5" cx="9.798" cy="25.417" r="8.799"/>
	<circle display="inline" fill="#2562AE" cx="9.747" cy="25.417" r="6.266"/>
	<g display="inline">
		<path fill="#2562AE" d="M47.348,26.02c0,1.1-0.899,2-2,2H14.571c-1.1,0-2-0.9-2-2v-1.013c0-1.1,0.9-2,2-2h30.777
			c1.101,0,2,0.9,2,2V26.02z"/>
	</g>
	<g display="inline">
		<path fill="#3D84C5" d="M42.029,25.361c0,0.885-0.899,1.609-2,1.609H8.615c-1.1,0-2-0.725-2-1.609s0.9-1.609,2-1.609h31.414
			C41.13,23.752,42.029,24.477,42.029,25.361z"/>
	</g>
	<circle display="inline" fill="#3D84C5" cx="9.738" cy="25.534" r="5.055"/>
	<line display="inline" fill="none" stroke="#2562AE" stroke-miterlimit="10" x1="38.273" y1="23.162" x2="38.273" y2="26.517"/>
	<line display="inline" fill="none" stroke="#2562AE" stroke-miterlimit="10" x1="32.908" y1="23.162" x2="32.908" y2="26.517"/>
	<line display="inline" fill="none" stroke="#2562AE" stroke-miterlimit="10" x1="27.542" y1="23.162" x2="27.542" y2="26.517"/>
	<line display="inline" fill="none" stroke="#2562AE" stroke-miterlimit="10" x1="22.176" y1="23.162" x2="22.176" y2="26.517"/>
</g>
<g id="Layer_2">
	<line fill="none" stroke="#7C7D7D" stroke-width="2" stroke-miterlimit="10" x1="2" y1="12.335" x2="2" y2="43.227"/>
	<line fill="none" stroke="#7C7D7D" stroke-width="2" stroke-miterlimit="10" x1="48.275" y1="12.335" x2="48.275" y2="43.227"/>
	<rect x="3.072" y="17.105" fill="#7C7D7D" width="45.336" height="2.603"/>
	<rect x="3.072" y="31.408" fill="#7C7D7D" width="45.336" height="2.603"/>
	<g>
		<rect x="7.696" y="9.191" fill="#7C7D7D" width="7.784" height="7.351"/>
		<rect x="16.951" y="9.191" fill="#7C7D7D" width="7.784" height="7.351"/>
		<rect x="26.206" y="9.191" fill="#7C7D7D" width="7.784" height="7.351"/>
		<rect x="35.461" y="9.191" fill="#7C7D7D" width="7.784" height="7.351"/>
	</g>
	<g>
		<rect x="7.696" y="23.495" fill="#7C7D7D" width="7.784" height="7.35"/>
		<rect x="16.951" y="23.495" fill="#7C7D7D" width="7.784" height="7.35"/>
		<rect x="26.206" y="23.495" fill="#7C7D7D" width="7.784" height="7.35"/>
		<rect x="35.461" y="23.495" fill="#7C7D7D" width="7.784" height="7.35"/>
	</g>
</g>
</svg>
