<?xml version="1.0" encoding="utf-8"?>
<!-- Generator: Adobe Illustrator 16.0.4, SVG Export Plug-In . SVG Version: 6.00 Build 0)  -->
<!DOCTYPE svg PUBLIC "-//W3C//DTD SVG 1.1//EN" "http://www.w3.org/Graphics/SVG/1.1/DTD/svg11.dtd">
<svg version="1.1" xmlns="http://www.w3.org/2000/svg" xmlns:xlink="http://www.w3.org/1999/xlink" x="0px" y="0px" width="50px"
	 height="50px" viewBox="0 0 50 50" enable-background="new 0 0 50 50" xml:space="preserve">
<g id="Layer_1">
	<g id="Layer_1_1_" display="none">
		<g display="inline">
			<path fill="#3D84C5" d="M2.788,2.021C2.653,0.929,3.443,0.036,4.543,0.036h39.809c1.101,0,1.891,0.893,1.756,1.985l-5.668,45.995
				C40.307,49.105,39.296,50,38.195,50h-27.5c-1.1,0-2.11-0.895-2.245-1.984L2.788,2.021z"/>
		</g>
		<polygon display="inline" fill="#FFFFFF" points="5.982,2.752 43.635,2.752 38.795,43.816 10.327,43.816 		"/>
		<g display="inline">
			<path fill="#3D84C5" d="M9.407,17.777c-0.091-1.096,0.734-1.993,1.834-1.993h26.411c1.101,0,1.89,0.893,1.752,1.984l-2.76,22.1
				c-0.138,1.092-1.148,1.983-2.248,1.983H13.413c-1.1,0-2.075-0.896-2.166-1.992L9.407,17.777z"/>
		</g>
		<g display="inline">
			<path fill="#FFFFFF" d="M26.758,24.295c-0.293,1.061-1.4,1.688-2.461,1.395l-10.063-2.78c-1.06-0.293-1.688-1.4-1.395-2.46
				l2.786-10.067c0.293-1.061,1.401-1.688,2.461-1.395l10.064,2.78c1.062,0.293,1.688,1.4,1.396,2.46L26.758,24.295z"/>
			<path fill="none" stroke="#3D84C5" stroke-miterlimit="10" d="M26.758,24.295c-0.293,1.061-1.4,1.688-2.461,1.395l-10.063-2.78
				c-1.06-0.293-1.688-1.4-1.395-2.46l2.786-10.067c0.293-1.061,1.401-1.688,2.461-1.395l10.064,2.78
				c1.062,0.293,1.688,1.4,1.396,2.46L26.758,24.295z"/>
		</g>
		<g display="inline">
			<path fill="#FFFFFF" d="M31.771,31.932c-0.686,0.861-1.949,1.008-2.811,0.322l-5.673-4.507c-0.861-0.685-1.006-1.949-0.322-2.811
				l4.511-5.681c0.685-0.861,1.948-1.007,2.811-0.323l5.675,4.507c0.861,0.684,1.007,1.948,0.322,2.81L31.771,31.932z"/>
			<path fill="none" stroke="#3D84C5" stroke-miterlimit="10" d="M31.771,31.932c-0.686,0.861-1.949,1.008-2.811,0.322l-5.673-4.507
				c-0.861-0.685-1.006-1.949-0.322-2.811l4.511-5.681c0.685-0.861,1.948-1.007,2.811-0.323l5.675,4.507
				c0.861,0.684,1.007,1.948,0.322,2.81L31.771,31.932z"/>
		</g>
		<g display="inline">
			<path fill="#FFFFFF" d="M19.115,40.932c-0.984,0.491-2.191,0.088-2.683-0.896L12.19,31.54c-0.492-0.983-0.088-2.19,0.896-2.685
				l8.506-4.25c0.984-0.492,2.191-0.089,2.683,0.896l4.245,8.5c0.49,0.982,0.088,2.191-0.896,2.684L19.115,40.932z"/>
			<path fill="none" stroke="#3D84C5" stroke-miterlimit="10" d="M19.115,40.932c-0.984,0.491-2.191,0.088-2.683-0.896L12.19,31.54
				c-0.492-0.983-0.088-2.19,0.896-2.685l8.506-4.25c0.984-0.492,2.191-0.089,2.683,0.896l4.245,8.5
				c0.49,0.982,0.088,2.191-0.896,2.684L19.115,40.932z"/>
		</g>
		<g display="inline">
			<path fill="#7C7D7D" d="M2.245,1.985C2.11,0.893,2.9,0,4,0h40.895c1.101,0,1.891,0.893,1.756,1.985l-5.666,45.994
				c-0.135,1.092-1.146,1.985-2.244,1.985H10.155c-1.1,0-2.11-0.894-2.245-1.985L2.245,1.985z"/>
		</g>
		<polygon display="inline" fill="#424343" points="5.439,2.716 44.18,2.716 39.338,43.781 9.784,43.781 		"/>
		<g display="inline">
			<path fill="#7C7D7D" d="M9.95,16.656c-0.091-1.096,0.734-1.993,1.834-1.993h26.414c1.1,0,1.889,0.893,1.752,1.984l-2.763,22.1
				c-0.138,1.092-1.148,1.983-2.248,1.983H13.957c-1.1,0-2.075-0.896-2.166-1.992L9.95,16.656z"/>
		</g>
		<g display="inline">
			<path fill="#424343" d="M27.302,23.173c-0.294,1.06-1.401,1.688-2.462,1.394l-10.062-2.782c-1.06-0.293-1.688-1.4-1.395-2.461
				l2.786-10.065c0.293-1.061,1.428-1.83,2.521-1.711l2.514,0.273c1.094,0.119,2.817,0.567,3.831,0.996l3.746,1.583
				c1.013,0.428,1.602,1.646,1.308,2.706L27.302,23.173z"/>
			<path fill="none" stroke="#7C7D7D" d="M27.302,23.173c-0.294,1.06-1.401,1.688-2.462,1.394l-10.062-2.782
				c-1.06-0.293-1.688-1.4-1.395-2.461l2.786-10.065c0.293-1.061,1.428-1.83,2.521-1.711l2.514,0.273
				c1.094,0.119,2.817,0.567,3.831,0.996l3.746,1.583c1.013,0.428,1.602,1.646,1.308,2.706L27.302,23.173z"/>
		</g>
		<g display="inline">
			<path fill="#424343" d="M32.314,30.811c-0.685,0.86-1.948,1.006-2.811,0.321l-5.673-4.507c-0.861-0.684-1.006-1.949-0.322-2.811
				l4.511-5.681c0.685-0.861,1.948-1.007,2.811-0.323l5.674,4.507c0.861,0.684,1.008,1.948,0.322,2.81L32.314,30.811z"/>
			<path fill="none" stroke="#7C7D7D" d="M32.314,30.811c-0.685,0.86-1.948,1.006-2.811,0.321l-5.673-4.507
				c-0.861-0.684-1.006-1.949-0.322-2.811l4.511-5.681c0.685-0.861,1.948-1.007,2.811-0.323l5.674,4.507
				c0.861,0.684,1.008,1.948,0.322,2.81L32.314,30.811z"/>
		</g>
		<g display="inline">
			<path fill="#424343" d="M19.657,39.812c-0.984,0.49-2.191,0.088-2.682-0.896l-4.243-8.499c-0.491-0.983-0.088-2.19,0.896-2.683
				l8.507-4.25c0.984-0.491,2.191-0.088,2.683,0.896l4.243,8.498c0.491,0.983,0.09,2.19-0.896,2.683L19.657,39.812z"/>
			<path fill="none" stroke="#7C7D7D" d="M19.657,39.812c-0.984,0.49-2.191,0.088-2.682-0.896l-4.243-8.499
				c-0.491-0.983-0.088-2.19,0.896-2.683l8.507-4.25c0.984-0.491,2.191-0.088,2.683,0.896l4.243,8.498
				c0.491,0.983,0.09,2.19-0.896,2.683L19.657,39.812z"/>
		</g>
	</g>
	<g id="Layer_2">
		<g>
			<g>
				<path fill="none" stroke="#525252" stroke-miterlimit="10" d="M10.388,214.156l27.374,52.5c2.033,3.9,0.098,7.094-4.303,7.094
					H-30c-4.4,0-6.379-3.215-4.398-7.145l26.45-52.449"/>
			</g>
			<g>
				<path fill="#7C7D7D" d="M16.317,233.512l17.119,34.374c0.49,0.984-0.009,1.79-1.107,1.79h-61.197
					c-1.1,0-1.594-0.804-1.098-1.785l17.369-34.379"/>
			</g>
			<polyline fill="none" stroke="#525252" stroke-miterlimit="10" points="-6.5,181.559 -9.986,181.559 -9.986,177.482 
				12.426,177.482 12.426,181.559 7.942,181.559 			"/>
			<polyline fill="none" stroke="#525252" stroke-miterlimit="10" points="10.388,214.156 10.388,181.559 -7.948,181.559 
				-7.948,214.156 			"/>
			<circle fill="#7C7D7D" stroke="#FFFFFF" cx="-8.627" cy="233.852" r="3.565"/>
			<circle fill="#7C7D7D" stroke="#FFFFFF" cx="-0.818" cy="230.455" r="4.244"/>
			<circle fill="#7C7D7D" stroke="#FFFFFF" cx="6.907" cy="233.937" r="3.481"/>
			<circle fill="#7C7D7D" stroke="#FFFFFF" cx="13.105" cy="234.361" r="2.038"/>
			<circle fill="#7C7D7D" cx="3.257" cy="222.646" r="2.547"/>
			<circle fill="#7C7D7D" cx="-0.563" cy="215.26" r="1.831"/>
		</g>
		<g>
			<path fill="none" stroke="#7C7D7D" stroke-width="2" stroke-miterlimit="10" d="M30.355,16.706l15.258,26.703
				c1.637,2.864,0.275,5.21-3.023,5.21H7.964c-3.3,0-4.694-2.363-3.098-5.252l14.732-26.661"/>
		</g>
		<polyline fill="none" stroke="#7C7D7D" stroke-width="2" stroke-miterlimit="10" points="20.447,3.689 18.402,3.689 18.402,1.298 
			31.555,1.298 31.555,3.689 28.923,3.689 		"/>
		<polyline fill="none" stroke="#7C7D7D" stroke-width="2" stroke-miterlimit="10" points="30.355,16.706 30.355,3.689 
			19.598,3.689 19.598,16.706 		"/>
		<g>
			<path fill="#7C7D7D" d="M34.503,29.814c-0.558-0.947-1.185-1.725-1.396-1.725s-0.334,0.137-0.272,0.305c0,0,0,0,0,0.168
				c0,0.629-0.509,1.139-1.137,1.139s-1.138-0.51-1.138-1.139c0-0.168,0-0.168,0-0.168c0.062-0.168-0.006-0.305-0.146-0.305
				s-0.246,0.07-0.23,0.155c0,0,0,0,0,0.082c0,1.071-0.871,1.94-1.942,1.94c-1.072,0-1.941-0.869-1.941-1.94
				c0-0.082,0-0.082,0-0.082c0.013-0.085-0.146-0.155-0.354-0.155c-0.207,0-0.825,0.299-1.376,0.663c0,0,0,0-0.637,0
				c-0.638,0-0.638,0-0.638,0c-0.551-0.364-1.169-0.663-1.375-0.663s-0.366,0.057-0.355,0.124c0,0,0,0,0,0.065
				c0,1.099-0.891,1.988-1.989,1.988c-1.098,0-1.989-0.891-1.989-1.988c0-0.065,0-0.065,0-0.065
				c0.011-0.067-0.036-0.124-0.103-0.124s-0.583,0.773-1.146,1.719L8.19,43.49c-0.562,0.945-0.123,1.719,0.977,1.719h32.37
				c1.1,0,1.545-0.775,0.986-1.725L34.503,29.814z"/>
		</g>
		<circle fill="#7C7D7D" cx="26.204" cy="18.104" r="1.421"/>
		<circle fill="#7C7D7D" cx="24.073" cy="14.954" r="1.021"/>
		<circle fill="#7C7D7D" cx="19.438" cy="25.461" r="1.853"/>
		<circle fill="#7C7D7D" cx="24.056" cy="23.156" r="2.206"/>
		<circle fill="#7C7D7D" cx="28.502" cy="25.663" r="1.809"/>
		<circle fill="#7C7D7D" cx="31.625" cy="25.882" r="1.059"/>
	</g>
	<g id="Layer_3">
	</g>
</g>
<g id="Layer_2_1_">
	<g>
		<path fill="none" stroke="#2288E0" stroke-width="2" stroke-miterlimit="10" d="M30.427,16.705l15.257,26.705
			c1.637,2.865,0.276,5.21-3.023,5.21H8.034c-3.3,0-4.694-2.363-3.098-5.252l14.733-26.663"/>
	</g>
	<polyline fill="none" stroke="#2288E0" stroke-width="2" stroke-miterlimit="10" points="20.517,3.688 18.472,3.688 18.472,1.296 
		31.624,1.296 31.624,3.688 28.994,3.688 	"/>
	<polyline fill="none" stroke="#2288E0" stroke-width="2" stroke-miterlimit="10" points="30.427,16.705 30.427,3.688 19.668,3.688 
		19.668,16.705 	"/>
	<g>
		<path fill="#2288E0" d="M34.573,29.815c-0.557-0.948-1.185-1.725-1.396-1.725s-0.334,0.136-0.274,0.302c0,0,0,0,0,0.171
			c0,0.628-0.506,1.135-1.136,1.135c-0.627,0-1.136-0.507-1.136-1.135c0-0.171,0-0.171,0-0.171c0.061-0.166-0.006-0.302-0.147-0.302
			s-0.247,0.07-0.233,0.155c0,0,0,0,0,0.079c0,1.073-0.868,1.942-1.939,1.942c-1.073,0-1.941-0.869-1.941-1.942
			c0-0.079,0-0.079,0-0.079c0.013-0.085-0.146-0.155-0.354-0.155c-0.207,0-0.827,0.299-1.378,0.663c0,0,0,0-0.637,0
			c-0.638,0-0.638,0-0.638,0c-0.55-0.364-1.168-0.663-1.375-0.663s-0.366,0.055-0.354,0.122c0,0,0,0,0,0.066
			c0,1.097-0.892,1.988-1.99,1.988c-1.098,0-1.989-0.892-1.989-1.988c0-0.066,0-0.066,0-0.066c0.011-0.067-0.035-0.122-0.102-0.122
			c-0.067,0-0.583,0.773-1.146,1.719L8.26,43.49c-0.563,0.945-0.124,1.719,0.977,1.719h32.373c1.1,0,1.544-0.776,0.987-1.725
			L34.573,29.815z"/>
	</g>
	<circle fill="#2288E0" cx="26.273" cy="18.103" r="1.42"/>
	<circle fill="#2288E0" cx="24.143" cy="14.952" r="1.021"/>
	<path fill="#2288E0" d="M21.36,25.462c0,1.022-0.829,1.85-1.853,1.85s-1.853-0.827-1.853-1.85c0-1.025,0.829-1.856,1.853-1.856
		S21.36,24.437,21.36,25.462z"/>
	<circle fill="#2288E0" cx="24.127" cy="23.155" r="2.206"/>
	<circle fill="#2288E0" cx="28.571" cy="25.663" r="1.808"/>
	<path fill="#2288E0" d="M32.754,25.88c0,0.585-0.475,1.06-1.06,1.06c-0.584,0-1.055-0.475-1.055-1.06
		c0-0.583,0.471-1.057,1.055-1.057C32.279,24.823,32.754,25.297,32.754,25.88z"/>
</g>
</svg>
