<?xml version="1.0" encoding="utf-8"?>
<!-- Generator: Adobe Illustrator 16.0.4, SVG Export Plug-In . SVG Version: 6.00 Build 0)  -->
<!DOCTYPE svg PUBLIC "-//W3C//DTD SVG 1.1//EN" "http://www.w3.org/Graphics/SVG/1.1/DTD/svg11.dtd">
<svg version="1.1" id="Layer_1" xmlns="http://www.w3.org/2000/svg" xmlns:xlink="http://www.w3.org/1999/xlink" x="0px" y="0px"
	 width="82.176px" height="87.453px" viewBox="0 0 82.176 87.453" enable-background="new 0 0 82.176 87.453" xml:space="preserve">
<g>
	<polygon fill="#4698C6" points="13.879,11.231 18.528,11.845 22.794,12.553 25.18,12.28 29.55,13.079 35.386,13.924 39.354,15.049 
		44.342,15.801 50.994,16.691 55.646,16.142 59.728,16.578 62.704,16.374 66.005,16.864 68.646,17.343 67.203,24.314 67.204,29.701 
		67.086,36.558 66.624,42.255 66.528,50.585 64.709,65.842 62.707,73.763 61.81,78.393 56.493,77.722 50.759,76.076 46.052,75.34 
		39.813,74.97 29.229,72.195 20.389,70.743 15.532,70.788 14.192,68.799 14.933,60.088 14.15,51.737 15.003,50.513 14.211,48.237 
		13.854,44.857 14.252,40.079 13.833,36.41 13.398,32.374 13.447,28.961 13.374,25.722 13.341,22.418 12.864,20.017 13.374,15.93 
		13.214,13.219 	"/>
	<polygon fill="none" stroke="#8AC2E2" stroke-miterlimit="10" points="16.637,15.399 20.785,15.946 24.591,16.579 26.719,16.334 
		30.618,17.047 35.823,17.801 39.363,18.804 43.812,19.475 49.746,20.269 53.897,19.781 57.538,20.168 60.194,19.988 63.139,20.423 
		65.494,20.85 64.206,27.07 64.208,31.876 64.104,37.993 63.69,43.074 63.605,50.505 61.982,64.116 60.195,71.181 59.396,75.313 
		54.653,74.714 49.537,73.245 45.338,72.589 39.774,72.259 30.331,69.783 22.444,68.487 18.111,68.528 16.918,66.753 17.578,58.983 
		16.879,51.534 17.641,50.442 16.934,48.411 16.614,45.395 16.971,41.133 16.596,37.858 16.209,34.259 16.252,31.216 16.188,28.326 
		16.156,25.38 15.731,23.237 16.188,19.589 16.044,17.172 	"/>
	<circle fill="#FFFFFF" cx="38.368" cy="25.88" r="3.285"/>
	<circle fill="none" stroke="#52A2D9" stroke-miterlimit="10" cx="38.398" cy="25.951" r="2.557"/>
</g>
<g>
	<polygon fill="#52A2D9" points="31.994,3.855 36.009,6.279 39.634,8.635 41.93,9.34 45.614,11.822 50.624,14.933 53.811,17.552 
		58.08,20.238 63.819,23.716 68.302,25.076 71.868,27.109 74.678,28.114 77.506,29.884 79.734,31.38 75.621,37.191 73.466,42.127 
		70.612,48.364 67.908,53.4 64.486,60.996 56.711,74.248 51.706,80.705 49.03,84.588 44.427,81.845 39.831,78.041 35.812,75.483 
		30.244,72.646 21.655,65.866 14.136,60.996 9.667,59.093 9.235,56.735 13.401,49.048 16.027,41.083 17.299,40.302 17.484,37.899 
		18.51,34.659 20.787,30.44 21.872,26.91 23.09,23.037 24.501,19.93 25.73,16.932 27.022,13.892 27.547,11.5 29.65,7.959 
		30.589,5.411 	"/>
	<polygon fill="none" stroke="#8AC2E2" stroke-miterlimit="10" points="32.853,8.778 36.436,10.94 39.669,13.043 41.717,13.671 
		45.005,15.886 49.473,18.661 52.315,20.997 56.124,23.393 61.244,26.496 65.243,27.709 68.424,29.523 70.931,30.42 73.454,31.999 
		75.442,33.333 71.772,38.516 69.85,42.921 67.305,48.485 64.893,52.975 61.84,59.751 54.904,71.574 50.438,77.333 48.051,80.799 
		43.945,78.352 39.845,74.958 36.259,72.676 31.293,70.146 23.631,64.096 16.923,59.751 12.936,58.055 12.552,55.951 16.268,49.094 
		18.609,41.989 19.744,41.292 19.909,39.148 20.824,36.257 22.856,32.495 23.824,29.343 24.911,25.89 26.168,23.119 27.267,20.445 
		28.417,17.733 28.886,15.598 30.764,12.439 31.6,10.167 	"/>
	<circle fill="#FFFFFF" cx="48.571" cy="27.083" r="3.285"/>
	<circle fill="none" stroke="#52A2D9" stroke-miterlimit="10" cx="48.57" cy="27.16" r="2.557"/>
</g>
<g>
	<polygon fill="#8BB1BB" points="7.852,43.191 14.082,39.12 13.854,43.857 	"/>
	<rect y="26.539" fill="none" width="45.703" height="31.737"/>
	<g>
		<polygon fill="#C8DFEA" points="7.852,43.191 34.768,43.191 28.798,37.221 36.03,37.221 44.559,45.75 36.03,54.276 28.798,54.276 
			34.768,48.306 7.519,48.306 		"/>
	</g>
</g>
</svg>
